TP de Biométrie Semestre 6 - 4 Correction des exercices
…
Comme précédemment, les températures sont en degrés Fahrenheit, et la colonne individual est inutile. On constate aussi que la température minimale observée vaut 9.72ºF, alors que toutes les autres sont comprises entre 97 et 100ºF. Il faut donc éliminer les valeurs aberrantes. Pour cela, on récupère uniquement les lignes dont la température est supérieure à 90ºF :

Temp_clean2 <- Temperature2 |>
  select(-individual) |>       # Suppression de la colonne `individual`
  filter(temperature > 90) |>  # On ne conserve que les températures "normales"
  mutate(                       # Transformation des températures en ºCelsius
    temperature = (temperature - 32) / 1.8
    )

Temp_clean2

# A tibble: 129 × 1
   temperature
         <dbl>
 1        37.4
 2        36.6
 3        36.9
 4        37.4
 5        36.8
 6        36.4
 7        37  
 8        36.3
 9        37.3
10        36.4
# ℹ 119 more rows
…
